{
  "images" : [
    {
      "idiom" : "universal",
      "filename" : "o05c4689743ff137ecd2ca19034eac2fb-4.jpeg",
      "scale" : "1x"
    },
    {
      "idiom" : "universal",
      "filename" : "o05c4689743ff137ecd2ca19034eac2fb-3.jpeg",
      "scale" : "2x"
    },
    {
      "idiom" : "universal",
      "filename" : "o05c4689743ff137ecd2ca19034eac2fb-2.jpeg",
      "scale" : "3x"
    }
  ],
  "info" : {
    "version" : 1,
    "author" : "xcode"
  }
}